{
    "selectors":{
		"buttonEdit" : ".product-list-display-full-edit"
 	,	"productsrowInWishlistTable" : ".product-list-details-list-items tr"
 	,	"dataValidationError" : "p[data-validation-error]"
 	,	"titleProductList" : ".product-list-details-title"
 	,	"buttonBulkAddtoCart" : ".product-list-bulk-actions-button-addtocart"
 	,	"labelSortBy" : ".list-header-view-sorts"
 	,	"noItemsContainer"	:	".product-list-details-no-items"
 	,	"noItemsMessage"	:	".product-list-details-no-items p"
 	,	"buttonCreateNewList" : ".product-list-lists-button-add"
 	,	"buttonCreateListSubmit" : ".product-list-new-form-submit"
 	,	"buttonViewCartModalListAdded" : ".product-list-added-to-cart-button-viewcart"
  , "itemOptionLink" : ".item-views-option-tile-anchor"
  , "buttonAddToWishList" : ".product-list-control-button-wishlist"
  , "inputGiftCertFrom"  : "#option-GIFTCERTFROM"
  , "inputGiftCertName"  : "#option-GIFTCERTRECIPIENTNAME"
  , "inputGiftCertEmail"  : "#option-GIFTCERTRECIPIENTEMAIL"
  , "inputGiftCertMessage"  : "#option-GIFTCERTMESSAGE"
  , "inputQuickViewGiftCertFrom"  : "#in-modal-option-GIFTCERTFROM"
  , "inputQuickViewGiftCertName"  : "#in-modal-option-GIFTCERTRECIPIENTNAME"
  , "inputQuickViewGiftCertEmail"  : "#in-modal-option-GIFTCERTRECIPIENTEMAIL"
  , "inputQuickViewGiftCertMessage"  : "#in-modal-option-GIFTCERTMESSAGE"
  , "productListFulName"  : ".product-list-display-full-name a"
  , "productListMarkItemSelected"  : ".product-list-display-full-select"
  , "buttonExpander"  : ".product-list-bulk-actions-button-expander"
  , "dropDownOptionExpander"  : ".product-list-bulk-actions-dropdown li a"
  , "EmptyWishList" : ".product-list-details-no-items p"
  , "OutOfStock": ".item-views-stock-msg-out-text"
  }
	,"xpaths":
	{
		"textItemName" : "//*[@class='product-list-display-full-name-anchor'][contains(text(),' %s')]"
	,	"productSaveforLater" : "//*[@class='product-list-details-later-macro-selectable-actionable'][@data-item-id='%s']"
	,	"productQuantity" : "//*[@name='item_quantity']"
	,	"productNameLink" : "//*[@class='product-list-details-later-macro-name-link']"
 	,	"productFinalPrice" : "//*[@class='item-views-price-lead']"
 	,	"buttonMovetoCart" : "//*[@class='product-list-details-later-macro-button-addtocart ']"
  , "buttonMovetoWishlist" : "//*[@class='product-list-control-button-move']"
 	,	"buttonRemoveProduct" : "//*[@class='product-list-details-later-macro-button-remove']"
 	,	"buttonModalRemoveYes" : "//*[@class='product-list-deletion-button-delete-button']"
  , "buttonAddToWishlist" : "//*[@class='product-list-control-button-wishlist']"
 	,	"productId" : "//*[@data-id='%s']"
  , "wishlistId" : "//*[@class='product-list-control-item-checkbox'][@data-product-list-id='%s']"
  , "checkboxWishlist" : "//*[@class='product-list-control-item-checkbox']"
 	,	"productMinQuantity" : "//*[@class='product-list-list-details-minquantity']"
 	,	"inputNewListName" : "//*[@class='product-list-new-form-input']"
  ,	"inputNewListNotes" : "//*[@class='product-list-new-form-textarea']"
  ,	"productListTableofLists"	: "//*[@class='product-list-lists-details']//tr"
  ,	"listColumnDetails"	:	"//*[@class='product-list-list-details-main']"
  ,	"listColumnDetailsItemsNumber"	:	"//*[@class='product-list-list-details-item-count']"
  ,	"titleListName"	:	"//*[@class='product-list-list-details-anchor']"
  ,	"listColumnInfo"	:	"//*[@class='product-list-list-details-info']"
  ,	"listColumnInfoWishlistDescription"	:	"//*[@class='product-list-list-details-description']"
  ,	"listColumnInfoWishlistDescriptionValue"	:	"//*[@class='product-list-list-details-description-value']"
  ,	"buttonEditList" : "//*[@class='product-list-list-details-button-edit']"
  ,	"buttonEditListMoreActions" : "//*[@class='product-list-list-details-button-expander']"
  ,	"LinkDeleteList" : "//*[@class='product-list-list-details-dropdown']//a"
  ,	"buttonAddListtoCart" : "//*[@class='product-list-list-details-add-to-cart']"
  ,	"buttonRemoveListModalYes" : "//*[@class='global-views-confirmation-confirm-button']"
  , "labelMinQuantity" : "//*[@class='product-list-details-min-quantity-label']"
  , "searchItemId" : "//*[@data-id='%s']"
  , "buttonEditSingleList" : "//*[@class='product-list-list-details-button-edit']"
  , "singleListTitle" : "//*[@class='product-list-display-full-name-anchor']"
  , "productPrice"  : "//table/tbody/tr/td/div [@data-view='ItemViews.Price']/div/span/span"
  , "productName" : "//table/tbody/tr/td/p [@class='product-list-display-full-name']/a"
  , "productDateAdded" : "//table/tbody/tr/td [@class='product-list-display-full-extras']/p [@class='product-list-display-full-date']/span"
  , "linkSelectedWishlist" : "//*[@class='product-list-control-flyout-product-lists']//span[contains(text(), '%s')]"
	}
}
