{
    "gulp": {
        "sass": [
            "Sass/**/*.scss"
        ]
    },
    "overrides": {
        "suitecommerce/BaseSassStyles@1.1.0/Sass/molecules/_pagination.scss": "Sass/molecules/_qs-pagination.scss",
        "suitecommerce/BaseSassStyles@1.1.0/Sass/molecules/_search.scss": "Sass/molecules/_qs-search.scss",
        "suitecommerce/BaseSassStyles@1.1.0/Sass/molecules/_summary_box.scss": "Sass/molecules/_qs-summary_box.scss",

        "suitecommerce/BaseSassStyles@1.1.0/Sass/variables/_colors.scss": "Sass/variables/_qs-colors.scss",
        "suitecommerce/BaseSassStyles@1.1.0/Sass/variables/_sizing.scss": "Sass/variables/_qs-sizing.scss",
        "suitecommerce/BaseSassStyles@1.1.0/Sass/variables/_typography.scss": "Sass/variables/_qs-typography.scss",

        "suitecommerce/BaseSassStyles@1.1.0/Sass/atoms/_forms.scss": "Sass/atoms/_qs-forms.scss",
        "suitecommerce/BaseSassStyles@1.1.0/Sass/atoms/_messages.scss": "Sass/atoms/_qs-messages.scss",
        "suitecommerce/BaseSassStyles@1.1.0/Sass/atoms/_purchase-controls.scss": "Sass/atoms/_qs-purchase-controls.scss",
        "efficiencies/StyleFixes@2.0.0/Sass/_typography.scss": "Sass/atoms/_qs-typography.scss"
    }
}
