{
    "gulp": {
        "javascript": [
            "JavaScript/*.js"
        ],
        "templates": [
            "Templates/*.tpl"
        ]
    },
    "overrides": {
        "suitecommerce/Receipt@2.0.1/Templates/receipt_list.tpl": "Templates/receipt_list_hide_status.tpl"
    }
}