{
  "id": "ss-lookbook-r1.1.1",
  "name": "LookBook",
  "dependencies": ["mont-blanc-base"],
  "version": "2.0",
  "buildToolsVersion": "1.1.0",
  "folders": {
    "modules": "Modules",
    "distribution": "bin/LocalDistribution",
    "deploy": "bin/DeployDistribution",
    "release": "bin/ReleaseDistribution"
  },
  "modules": {
    "efficiencies/LookBook": "1.1.1",
    "efficiencies/EFCore": "1.1.0"
  },
  "tasksConfig": {
    "javascript": [
      {
        "entryPoint": "SC.Shopping.Starter",
        "dependencies": [
          "ItemDetails.LookItems",
          "LookBook"
        ]
      }
    ],
    "ssp-libraries": {
      "dependencies": [
        "ItemDetails.EntryPoint.LookItems",
        "LookBook.Model",
        "Look.Model"
      ]
    },
    "sass": {
      "applications": [
        {
          "name": "Shopping",
          "dependencies": [
            "LookBook"
          ]
        }
      ]
    }
  }
}
