{
  "id": "ss-googlerecaptchaProductReview",
  "name": "GoogleRecaptcha ProductReview",
  "dependencies": ["mont-blanc-base"],
  "version": "2.0",
  "buildToolsVersion": "1.1.0",
  "folders": {
    "modules": "Modules",
    "distribution": "bin/LocalDistribution",
    "deploy": "bin/DeployDistribution"
  },
  "modules": {
    "efficiencies/GoogleRecaptcha": "dev",
    "efficiencies/ProductReviewGoogleRecaptcha": "dev",
    "efficiencies/ProductEditReviewGoogleRecaptcha": "dev"
  },
  "tasksConfig": {
    "javascript": [
      {
        "entryPoint": "SC.Shopping.Starter",
        "dependencies": [
          "GoogleRecaptcha",
          "ProductReviewGoogleRecaptcha",
          "ProductEditReviewGoogleRecaptcha"
        ]
      },
      {
        "entryPoint": "SC.MyAccount.Starter",
        "dependencies": [
        ]
      },
      {
        "entryPoint": "SC.Checkout.Starter",
        "dependencies": []
      }
    ],
    "ssp-libraries": {
      "dependencies": [
        "GoogleRecaptcha.Configuration",
        "ProductReviewGoogleRecaptcha.Model",
        "GoogleRecaptcha.Model",
        "ProductEditReviewGoogleRecaptcha.Model",
        "GoogleRecaptcha.Model"
      ]
    },
    "sass": {
      "applications": [
        {
          "name": "Shopping",
          "dependencies": [
            "ProductReviewGoogleRecaptcha",
            "ProductEditReviewGoogleRecaptcha"
          ]
        },
        {
          "name": "MyAccount",
          "dependencies": []
        },
        {
          "name": "Checkout",
          "dependencies": []
        }
      ]
    },
    "deploy": {
      "backup": true
    }
  },
  "backup":false
}