{
  "id": "ss-quickorder",
  "name": "QuickOrder",
  "dependencies": ["mont-blanc-base"],
  "version": "2.0",
  "buildToolsVersion": "1.1.0",
  "folders": {
    "modules": "Modules",
    "distribution": "bin/LocalDistribution",
    "deploy": "bin/DeployDistribution",
    "release": "bin/ReleaseDistribution"
  },
  "modules": {
    "efficiencies/QuickOrder": "dev"
  },
  "tasksConfig": {
    "javascript": [
      {
        "entryPoint": "SC.Shopping.Starter",
        "dependencies": [
          "QuickOrder"
        ]
      }
    ],
    "ssp-libraries": {
      "dependencies": [
        "QuickOrder.Model",
        "LiveOrder.Model.MultiLine"
      ]
    },
    "sass": {
      "applications": [
        {
          "name": "Shopping",
          "dependencies": [
            "QuickOrder"
          ]
        }
      ]
    }
  }
}
