{
    "gulp": {
        "sass": [
            "Sass/*.scss"
        ],
        "templates": [
            "Templates/*"
        ]
    },
    "overrides": {
        "suitecommerce/ItemViews@1.3.0/Templates/item_views_stock.tpl": "Templates/qs_traleika_item_views_stock.tpl"
    }

}
