{
    "gulp": {
        "templates": [
            "Templates/*"
        ],
        "sass": [
            "Sass/**/*.scss"
        ]
    },
    "overrides": {
        "suitecommerce/Facets@2.1.0/Templates/facets_item_cell_grid.tpl": "Templates/qs_eldridge_facets_item_cell_grid.tpl"
    }
}
