{
	"selectors":{
		"clearAny": ".facets-facets-display-filter",
		"clearId": "[data-facet-id=\"%s\"]",
		"clearAll": ".facets-faceted-navigation-facets-clear",
		"title": ".facets-facet-browse-title",

		"productById": "[data-item-id=\"%s\"]",
		"productByIdTitleLink": "[data-item-id='%s'] a.facets-item-cell-grid-title",

		"rangeGroup": ".facets-faceted-navigation-item-range-facet-group",
		"rangeStartLabel": ".facets-faceted-navigation-item-range-start",
		"rangeEndLabel": ".facets-faceted-navigation-item-range-end",
		"rangeStartSlider": ".facets-faceted-navigation-item-range-slider-bar-right",
		"rangeEndSlider": ".facets-faceted-navigation-item-range-slider-bar-left",

		"colorGroup": ".facets-faceted-navigation-item-color-facet-group",
		"colorOptions": ".facets-faceted-navigation-item-color-option",
		"colorFirstOption": ".facets-faceted-navigation-item-color-facet-group:nth(0) .facets-faceted-navigation-item-color-option:nth(0)",
		"colorSecondOption": ".facets-faceted-navigation-item-color-facet-group:nth(0) .facets-faceted-navigation-item-color-option:nth(1)",

		"textGroup": ".facets-faceted-navigation-item-facet-group",
		"textOptions": ".facets-faceted-navigation-item-facet-option",
		
		"firstTextGroup": ".facets-faceted-navigation-item-facet-group:nth(0)",
		"secondTextGroup": ".facets-faceted-navigation-item-facet-group:nth(1)",
		"firstTextGroupFirstOption": ".facets-faceted-navigation-item-facet-group:nth(0) .facets-faceted-navigation-item-facet-option:nth(0)",
		"secondTextGroupFirstOption": ".facets-faceted-navigation-item-facet-group:nth(1) .facets-faceted-navigation-item-facet-option:nth(0)"
  	}
}