{
    "gulp": {
        "javascript": [
            "JavaScript/*.js"
        ],
        "templates": [
            "Templates/*.tpl"
        ],
        "sass": [
            "Sass/*.scss"
        ],
        "ssp-libraries": [
            "SuiteScript/*.js"
        ],
        "images": [
            "images/*"
        ]
    }
}