{
    "gulp": {
        "sass": [
            "Sass/**/*.scss"
        ]
    },
    "overrides": {
        "efficiencies/StyleFixes@1.0.0/Sass/_typography.scss": "Sass/atoms/_qs-kahiltna-typography.scss",
        "suitecommerce/BaseSassStyles@1.0.2/Sass/atoms/_messages.scss": "Sass/atoms/_qs-kahiltna-messages.scss",
        "suitecommerce/BaseSassStyles@1.0.2/Sass/atoms/_purchase-controls.scss": "Sass/atoms/_qs-kahiltna-purchase-controls.scss",
        "suitecommerce/BaseSassStyles@1.0.2/Sass/molecules/_breadcrumb.scss": "Sass/molecules/_qs-kahiltna-breadcrumb.scss",
        "suitecommerce/BaseSassStyles@1.0.2/Sass/molecules/_summary_box.scss": "Sass/molecules/_qs-kahiltna-summary_box.scss",
        "suitecommerce/BaseSassStyles@1.0.2/Sass/variables/_colors.scss": "Sass/variables/_qs-kahiltna-colors.scss",
        "suitecommerce/BaseSassStyles@1.0.2/Sass/variables/_sizing.scss": "Sass/variables/_qs-kahiltna-sizing.scss",
        "suitecommerce/BaseSassStyles@1.0.2/Sass/variables/_typography.scss": "Sass/variables/_qs-kahiltna-typography.scss"

    }
}
