{
    "type": "object",
    "subtab": {
        "id": "storeLocator",
        "title": "Store Locator",
        "description": "",
        "group": "commerceSuiteSolution"
    },
    "properties": {
        "storeLocator.enableStoreDetailPage": {
            "group": "commerceSuiteSolution",
            "subtab": "storeLocator",
            "type": "boolean",
            "title": "Enable Store Detail Page",
            "description": "",
            "default": true
        },
        "storeLocator.googleMapsApiKey": {
            "group": "commerceSuiteSolution",
            "subtab": "storeLocator",
            "type": "string",
            "title": "Google Maps API Key",
            "description": "",
            "default": ""
        },
        "storeLocator.geolocateOnInit": {
            "group": "commerceSuiteSolution",
            "subtab": "storeLocator",
            "type": "boolean",
            "title": "Enable Auto Location on Page Load",
            "description": "Set to True if auto locate current position is required on store locator load",
            "default": false
        },
        "storeLocator.storeCountShow": {
            "group": "commerceSuiteSolution",
            "subtab": "storeLocator",
            "type": "integer",
            "title": "Nearest Store Count",
            "description": "Number of nerest stores to be shown",
            "default": 5
        },
        "storeLocator.units": {
            "group": "commerceSuiteSolution",
            "subtab": "storeLocator",
            "type": "string",
            "title": "Map Distance unit",
            "description": "",
            "enum": ["miles", "kilometers"],
            "default": "miles"
        },
        "storeLocator.errorDirection.text": {
            "group": "commerceSuiteSolution",
            "subtab": "storeLocator",
            "type": "string",
            "title": "Direction Not Found Message",
            "description": "Text to show when direction is not applicable",
            "default": "No direction found"
        },
        "storeLocator.map.animation": {
            "group": "commerceSuiteSolution",
            "subtab": "storeLocator",
            "type": "string",
            "title": "",
            "description": "",
            "enum": ["DROP", "BOUNCE"],
            "default": "DROP"
        },
        "storeLocator.map.defaultZoom": {
            "group": "commerceSuiteSolution",
            "subtab": "storeLocator",
            "type": "integer",
            "title": "Default Zoom",
            "description": "",
            "default": 12
        },
        "storeLocator.map.selectedStoreZoom": {
            "group": "commerceSuiteSolution",
            "subtab": "storeLocator",
            "type": "integer",
            "title": "Selected Store Zoom",
            "description": "",
            "default": 14
        },
        "storeLocator.map.mapTypeControl": {
            "group": "commerceSuiteSolution",
            "subtab": "storeLocator",
            "type": "boolean",
            "title": "",
            "description": "",
            "default": false
        },
        "storeLocator.map.panControl": {
            "group": "commerceSuiteSolution",
            "subtab": "storeLocator",
            "type": "boolean",
            "title": "Map Pan Control",
            "description": "",
            "default": false
        },
        "storeLocator.map.zoomControl": {
            "group": "commerceSuiteSolution",
            "subtab": "storeLocator",
            "type": "boolean",
            "title": "Map Zoom Control",
            "description": "",
            "default": true
        },
        "storeLocator.map.scaleControl": {
            "group": "commerceSuiteSolution",
            "subtab": "storeLocator",
            "type": "boolean",
            "title": "Map Scale Control",
            "description": "",
            "default": true
        },
        "storeLocator.map.streetViewControl": {
            "group": "commerceSuiteSolution",
            "subtab": "storeLocator",
            "type": "boolean",
            "title": "Map Street View Control",
            "description": "",
            "default": false
        },
        "storeLocator.map.allowDrag": {
            "group": "commerceSuiteSolution",
            "subtab": "storeLocator",
            "type": "boolean",
            "title": "Map Allow Drag",
            "description": "",
            "default": true
        },
        "storeLocator.map.defaultCenter.lat": {
            "group": "commerceSuiteSolution",
            "subtab": "storeLocator",
            "type": "number",
            "title": "Map Default Center Latitude",
            "description": "",
            "default": 39.912811
        },
        "storeLocator.map.defaultCenter.lng": {
            "group": "commerceSuiteSolution",
            "subtab": "storeLocator",
            "type": "number",
            "title": "Map Default Center Longitude",
            "description": "",
            "default": -101.465781
        },
        "storeLocator.radiusCircle.enabled": {
            "group": "commerceSuiteSolution",
            "subtab": "storeLocator",
            "type": "boolean",
            "title": "Enable Radius",
            "description": "Enable Radius",
            "default": true
        },
        "storeLocator.radiusCircle.distanceFilters": {
            "group": "commerceSuiteSolution",
            "subtab": "storeLocator",
            "type": "integer",
            "title": "Radius Distance",
            "description": "",
            "default": 500
        },
        "storeLocator.radiusCircle.style.strokeWeight": {
            "group": "commerceSuiteSolution",
            "subtab": "storeLocator",
            "type": "number",
            "title": "Radius Stroke Weight",
            "description": "",
            "default": 1
        },
        "storeLocator.radiusCircle.style.strokeColor": {
            "group": "commerceSuiteSolution",
            "subtab": "storeLocator",
            "type": "string",
            "title": "Radius Stroke Color (hex)",
            "description": "",
            "default": "#0000FF"
        },
        "storeLocator.radiusCircle.style.fillColor": {
            "group": "commerceSuiteSolution",
            "subtab": "storeLocator",
            "type": "string",
            "title": "",
            "description": "Radius Fill Color (hex)",
            "default": "#0000FF"
        },
        "storeLocator.radiusCircle.style.strokeOpacity": {
            "group": "commerceSuiteSolution",
            "subtab": "storeLocator",
            "type": "number",
            "title": "Radius Stroke Opacity",
            "description": "",
            "default": 0.5
        },
        "storeLocator.radiusCircle.style.fillOpacity": {
            "group": "commerceSuiteSolution",
            "subtab": "storeLocator",
            "type": "number",
            "title": "Radius Fill Opacity",
            "description": "",
            "default": 0.08
        },
        "storeLocator.originMarker.animation": {
            "group": "commerceSuiteSolution",
            "subtab": "storeLocator",
            "type": "string",
            "title": "Origin Marker animation",
            "description": "",
            "enum": ["DROP", "BOUNCE"],
            "default": "DROP"
        },
        "storeLocator.originMarker.text": {
            "group": "commerceSuiteSolution",
            "subtab": "storeLocator",
            "type": "string",
            "title": "Origin Marker Text",
            "description": "",
            "default": "You're here"
        },
        "storeLocator.originMarker.size.x": {
            "group": "commerceSuiteSolution",
            "subtab": "storeLocator",
            "type": "number",
            "title": "Origin Marker Size Width",
            "description": "",
            "default": 39
        },
        "storeLocator.originMarker.size.y": {
            "group": "commerceSuiteSolution",
            "subtab": "storeLocator",
            "type": "number",
            "title": "Origin Marker Size Height",
            "description": "",
            "default": 34
        },
        "storeLocator.originMarker.origin.x": {
            "group": "commerceSuiteSolution",
            "subtab": "storeLocator",
            "type": "number",
            "title": "Origin Marker Origin Point X",
            "description": "",
            "default": 0
        },
        "storeLocator.originMarker.origin.y": {
            "group": "commerceSuiteSolution",
            "subtab": "storeLocator",
            "type": "number",
            "title": "Origin Marker Origin Point Y",
            "description": "",
            "default": 0
        },
        "storeLocator.originMarker.anchor.x": {
            "group": "commerceSuiteSolution",
            "subtab": "storeLocator",
            "type": "number",
            "title": "Origin Marker Anchor Point X",
            "description": "",
            "default": 11
        },
        "storeLocator.originMarker.anchor.y": {
            "group": "commerceSuiteSolution",
            "subtab": "storeLocator",
            "type": "number",
            "title": "Origin Marker Anchor Point Y",
            "description": "",
            "default": 33
        },
        "storeLocator.originMarker.icon": {
            "group": "commerceSuiteSolution",
            "subtab": "storeLocator",
            "type": "string",
            "title": "Origin Marker Icon",
            "description": "",
            "default": "//www.google.com/mapfiles/arrow.png"
        },
        "storeLocator.storeMarker.animation": {
            "group": "commerceSuiteSolution",
            "subtab": "storeLocator",
            "type": "string",
            "title": "Store Marker Animation",
            "description": "",
            "enum": ["DROP", "BOUNCE"],
            "default": "DROP"
        },
        "storeLocator.storeMarker.size.x": {
            "group": "commerceSuiteSolution",
            "subtab": "storeLocator",
            "type": "number",
            "title": "Store Marker Size Width",
            "description": "",
            "default": 22
        },
        "storeLocator.storeMarker.size.y": {
            "group": "commerceSuiteSolution",
            "subtab": "storeLocator",
            "type": "number",
            "title": "Store Marker Size Height",
            "description": "",
            "default": 40
        },
        "storeLocator.storeMarker.origin.x": {
            "group": "commerceSuiteSolution",
            "subtab": "storeLocator",
            "type": "number",
            "title": "Store Marker Origin Point X",
            "description": "",
            "default": 0
        },
        "storeLocator.storeMarker.origin.y": {
            "group": "commerceSuiteSolution",
            "subtab": "storeLocator",
            "type": "number",
            "title": "Store Marker Origin Point Y",
            "description": "",
            "default": 0
        },
        "storeLocator.storeMarker.anchor.x": {
            "group": "commerceSuiteSolution",
            "subtab": "storeLocator",
            "type": "number",
            "title": "Store Marker Anchor Point X",
            "description": "",
            "default": 15
        },
        "storeLocator.storeMarker.anchor.y": {
            "group": "commerceSuiteSolution",
            "subtab": "storeLocator",
            "type": "number",
            "title": "Store Marker Anchor Point Y",
            "description": "",
            "default": 32
        },
        "storeLocator.storeMarker.allowDrag": {
            "group": "commerceSuiteSolution",
            "subtab": "storeLocator",
            "type": "boolean",
            "title": "Store Marker Alow Drag",
            "description": "",
            "default": false
        }
    }
}



