{
    "gulp": {
        "templates": [
            "Templates/*"
        ],
        "sass": [
            "Sass/**/*.scss"
        ]
    },
    "overrides": {
        "efficiencies/Footer.Copyright@1.0.0/Templates/footer.tpl": "Templates/qs_eldridge_footer.tpl",
        "suitecommerce/Footer@1.2.0/Sass/_footer.scss": "Sass/_qs-eldridge-footer.scss"
    }
}
