{
    "gulp": {
        "ssp-files": {
            "SuiteScript/checkout.ssp": "checkout.ssp",
            "SuiteScript/cart.ssp": "cart.ssp",
            "SuiteScript/checkout.environment.ssp": "checkout.environment.ssp",
            "Internal/index-local.ssp": "checkout-local.ssp",
            "Internal/cart-local.ssp": "cart-local.ssp"
        },
        "languages": [
            "Languages/*.js"
        ],
        "images": [
            "Images/*"
        ],
        "automation-selectors": [
            "Automation/Data/selectors.json"
        ],
        "automation-helpers": [
            "Automation/Helpers/*.js"
        ],
        "automation-tests": [
            "Automation/Tests/*.js",
            "Automation/Tests/BillingFirst/*.js",
            "Automation/Tests/BillingFirstSkipLogin/*.js",
            "Automation/Tests/Login/*.js",
            "Automation/Tests/OnePage/*.js",
            "Automation/Tests/OnePageSkipLogin/*.js",
            "Automation/Tests/Standard/*.js",
            "Automation/Tests/StandardSkipLogin/*.js",
            "Automation/Tests/StandardInvoice/*.js",
            "Automation/Tests/StandardMultiShipTo/*.js"
        ]
    }
}