{
    "gulp": {
        "templates": [
            "Templates/*.tpl"
        ],
        "sass": [
            "Sass/**/*.scss"
        ]
    },
    "overrides": {
        "suitecommerce/ItemDetails@2.1.0/Templates/item_details.tpl": "Templates/qs_eldridge_item_details.tpl"
    }
}