{
	"selectors":
	{
		"msgForbiddenError": ".error-management-forbidden-error-header"
	,	"msgNotFoundError": ".error-management-page-not-found-header"
	,	"msgInternalError": ".error-management-internal-error-header"
	}
}