{
  "id": "ss-duplicatecustomermanagement-r1.0.1",
  "name": "SuiteSolutions - DuplicateCustomerManagement",
  "dependencies": ["mont-blanc-base"],
  "modules": {
    "efficiencies/DuplicateCustomerManagement": "1.0.1",
    "efficiencies/EFCore": "1.1.0"
  },
  "tasksConfig": {
    "ssp-libraries": {
      "dependencies": [
        "DuplicateCustomerManagement.ContextSetup"
      ]
    },
    "backend-suitescript": {
      "amdConfig": {
        "paths": {
          "Backbone.Validation": "backbone-validation.server.custom"
        },
        "shim": {
          "Backbone.Validation": {
            "exports": "Backbone.Validation"
          }
        },
        "findNestedDependencies": true,
        "map": {
          "SC.Model": {
            "Application": "Application.Backend"
          },
          "Utils": {
            "Application": "Application.Backend"
          }
        }
      }
    }
  }
}