{
  "id": "ss-theme-muldrow-r2.0.0",
  "name": "SuiteSolution Theme Muldrow - Mont Blanc",
  "dependencies": ["mont-blanc-base"],
  "modules": {
    "themes/muldrow/Theme_BaseSassStyles": "1.1",
    "themes/muldrow/Theme_Cart": "1.0",
    "themes/muldrow/Theme_GlobalViews": "1.0",
    "themes/muldrow/Theme_Facets": "1.1",
    "themes/muldrow/Theme_Footer": "1.1",
    "themes/muldrow/Theme_Header": "1.1",
    "themes/muldrow/Theme_ItemDetails": "1.1",
    "themes/muldrow/Theme_SiteSearch": "1.1",
    "themes/muldrow/Theme_ShoppingApplication": "1.0",
    "themes/muldrow/Theme_FontLoad": "1.1"
  },
  "tasksConfig": {
    "javascript": [
      {
        "entryPoint": "SC.Shopping.Starter",
        "dependencies": [
          "QS.Header.View"
        ]
      },
      {
        "entryPoint": "SC.MyAccount.Starter",
        "dependencies": [
          "QS.Header.View"
        ]
      },
      {
        "entryPoint": "SC.Checkout.Starter",
        "dependencies": [
          "QS.Header.View"
        ]
      }
    ],
    "sass": {
      "applications": [
        {
          "name": "Shopping",
          "dependencies": [
            "Theme_ShoppingApplication",
            "Theme_Cart",
            "Theme_GlobalViews",
            {
              "module": "Theme_BaseSassStyles",
              "include": [
                "qs-reset"
              ]
            },
            "Theme_Facets",
            {
              "module": "Theme_Header",
              "include": [
                "qs-header",
                "qs-header-logo",
                "qs-header-sidebar"
              ]
            },
            "Theme_ItemDetails",
            "Theme_SiteSearch"
          ]
        },
        {
          "name": "MyAccount",
          "dependencies": [
            {
              "module": "Theme_Header",
              "include": [
                "qs-header",
                "qs-header-logo",
                "qs-header-sidebar"
              ]
            },
            "Theme_SiteSearch"
          ]
        },
        {
          "name": "Checkout",
          "dependencies": [
            {
              "module": "Theme_BaseSassStyles",
              "include": [
                "qs-reset"
              ]
            },
            {
              "module": "Theme_Header",
              "include": [
                "qs-header",
                "qs-header-logo",
                "qs-header-sidebar"
              ]
            },
            "Theme_SiteSearch"
          ]
        }
      ]
    },
    "ssp-libraries": {
      "dependencies": [
        "Fonts.Configuration"
      ]
    }
  }
}




