 {
    "selectors":
    {
        "creditCardIcon" : ".creditcard-header-icon"
    ,   "creditCardNumber" : ".creditcard-number" 
    ,   "creditCardExpDate" : ".creditcard-expdate"
    ,   "creditCardName" : ".creditcard-name"
    ,   "defaultIcon" : ".creditcard-default-icon"
    ,   "editNumber" : ".creditcard-edit-form input[name=ccnumber]"
    ,   "editMonth" : ".creditcard-edit-form select[name=expmonth]"
    ,   "editYear" : ".creditcard-edit-form select[name=expyear]"
    ,   "editName" : ".creditcard-edit-form input[name=ccname]"
    ,   "editSecurityNumber" : "input[name=ccsecuritycode]"
    ,   "editDefault" : "#in-modal-ccdefault"
    ,   "defaultCheckBox" : "[name=ccdefault]"
    ,   "addCardButton" : ".creditcard-edit-form-button-submit"
    ,   "addCreditCardButton" : ".creditcard-list-button"
    ,   "errorMessage" : "p[data-validation-error]"
    ,   "changeCardButton" : ".order-wizard-paymentmethod-creditcard-module-change-card"
    ,   "addNewCreditCardButton" : ".order-wizard-paymentmethod-creditcard-module-add-new-credit-card-button"
    ,   "useThisCreditCardButton" : ".creditcard-use-this-card-button[data-id='%s']"
    ,   "creditCardPageLocator" : ".CreditCardListView , .CreditCardDetailsView"
    ,   "editCreditCardTitle" : ".global-views-modal-content-header-title"
    }
    ,   "xpaths":
    {
        "creditCardClass" : "//*[@class='creditcard']"
    ,   "creditCardDataId" : "//*[@data-id='%s']//*[@class='creditcard-number']"
    ,   "removeCreditCard" : "//*[@data-id='%s']/descendant::*[@data-action='remove']"
    ,   "getIcon" : "//*[@class='creditcard-content']//*[@class='creditcard-header-icon']"
    ,   "getEnding" : "//*[@class='creditcard-content']//*[@class='creditcard-number']/b"
    ,   "getExpDate" : "//*[@class='creditcard-content']//*[@class='creditcard-expdate']"
    ,   "getName" : "//*[@class='creditcard-content']//*[@class='creditcard-name']"
    ,   "getDefault" : "//*[@class='creditcard-content']//*[@class='creditcard-default']/i"
    ,   "getId" : "//*[@data-id='%s']"
    ,   "editButton" : "//*[@class='creditcard-edit-form-button-edit']"
    }
}