{
    "gulp": {
        "templates": [
            "Templates/*"
        ],
        "sass": [
        	"Sass/**/*.scss"
        ]
    },
    "overrides": {
        "suitecommerce/ShoppingApplication@2.0.6/Templates/shopping_layout.tpl": "Templates/qs_eldridge_shopping_layout.tpl"
    }
}