{
    "gulp": {
        "automation-selectors": [
            "Automation/Data/selectors.json"
        ],
        "automation-helpers": [
            "Automation/Helpers/*.js"
        ],
        "automation-tests": [
            "Automation/Tests/*.js"
        ]
    }
}