{
  "id": "ss-guestorderstatus-r1.0.0",
  "name": "GuestOrderStatus",
  "dependencies": ["mont-blanc-base"],
  "version": "2.0",
  "buildToolsVersion": "1.1.0",
  "folders": {
    "modules": "Modules",
    "distribution": "bin/LocalDistribution",
    "deploy": "bin/DeployDistribution",
    "release": "bin/ReleaseDistribution"
  },
  "modules": {
    "efficiencies/GuestOrderStatus": "1.0.0",
    "efficiencies/EFCore": "1.1.0"
  },
  "tasksConfig": {
    "javascript": [
      {
        "entryPoint": "SC.Shopping.Starter",
        "dependencies": [
          "GuestOrderStatus"
        ]
      }
    ],
    "ssp-libraries": {
      "dependencies": [
        "GuestOrderStatus.Model"
      ]
    },
    "sass": {
      "applications": [
        {
          "name": "Shopping",
          "dependencies": [
            "GuestOrderStatus"
          ]
        }
      ]
    },
    "backend-suitescript": {
      "amdConfig": {
        "paths": {
          "Backbone.Validation": "backbone-validation.server.custom"
        },
        "shim": {
          "Backbone.Validation": {
            "exports": "Backbone.Validation"
          }
        },
        "findNestedDependencies": true,
        "map": {
          "SC.Model": {
            "Application": "Application.Backend"
          },
          "Utils": {
            "Application": "Application.Backend"
          },
          "GuestOrderStatus.Model": {
              "Application": "Application.Backend"
          },
          "EF - GOS - SL - Guest Order Status Service": {
              "Application": "Application.Backend"
          }
        }
      }
    }
  }
}
