{
  "id": "ss-sizechart-r1.0.1",
  "name": "SizeChart",
  "dependencies": ["mont-blanc-base"],
  "version": "2.0",
  "buildToolsVersion": "1.1.0",
  "folders": {
    "modules": "Modules",
    "distribution": "bin/LocalDistribution",
    "deploy": "bin/DeployDistribution",
    "release": "bin/ReleaseDistribution"
  },
  "modules": {
    "efficiencies/SizeChart": "1.0.1"
  },
  "tasksConfig": {
    "javascript": [
      {
        "entryPoint": "SC.Shopping.Starter",
        "dependencies": [
          "SizeChart"
        ]
      }
    ],
    "ssp-libraries": {
      "dependencies": [
        "SizeChart.Model"
      ]
    },
    "sass": {
      "applications": [
        {
          "name": "Shopping",
          "dependencies": [
            "SizeChart"
          ]
        }
      ]
    }
  }
}
