{
    "gulp": {
        "javascript": [
            "JavaScript/*"
        ]
    },
    "overrides": {
        "suitecommerce/ShoppingApplication@2.1.0/JavaScript/SC.Shopping.Starter.js": "JavaScript/SC.Shopping.Starter.js"
    }
}