{
    "GalaxyS6": {
        "port" : 4723
    ,   "host" : "localhost"
    ,   "logLevel": "silent"
    ,   "logOutput": null
    ,   "path": "/wd/hub"
    ,   "baseUrl": null
    ,   "coloredLogs": true
    ,   "screenshotPath": null
    ,   "waitforTimeout": 500
    ,   "waitforInterval": 250
    ,   "desiredCapabilities": {
            "browserName": "Chrome"
        ,   "platformName": "Android"
        ,   "platformVersion": "5.1.1"
        ,   "deviceName": "Android"
        ,   "appiumVersion" : "1.4.16.1"
        }
    }
,    "IOSSimulator": {
        "port" : 4723
    ,   "host" : "127.0.0.1"
    ,   "logLevel": "silent"
    ,   "logOutput": null
    ,   "path": "/wd/hub"
    ,   "baseUrl": null
    ,   "coloredLogs": true
    ,   "screenshotPath": null
    ,   "waitforTimeout": 500
    ,   "waitforInterval": 250
    ,   "desiredCapabilities": {
            "browserName": "Safari"
        ,   "platformName": "iOS"
        ,   "platformVersion": "8.1"
        ,   "deviceName": "IOS Device"
        ,   "appiumVersion" : "1.4.16.1"
        }
    }
}