 {
    "selectors":
    {
        "firstname" : "#firstname"
    ,   "lastname" : "#lastname"
    ,   "phone" : "#phone" 
    ,   "companyname" : "#companyname"  
    ,   "errorMessage" : "div[data-input='%s'] p"
    ,   "successMessage" : ".global-views-message-success"
    ,   "updateButton" : "button.profile-information-button-update"
    ,   "editButton" : "a.overview-profile-card-button-edit"
    ,   "inputFirstname" : "input[name='firstname']"
    ,   "inputLastname" : "input[name='lastname']"
    ,   "inputCompanyname" : "input[name='companyname']"
    ,   "inputPhone" : "input[name='phone']"
    ,   "profileHeader" : "h2.profile-information-header"
    ,   "emailPreferences" : ".profile-emailpreferences-submit"
    ,   "subscriptionOne" : "#subscription-1"
    ,   "subscriptionTwo" : "#subscription-2"
    ,   "subscriptionThree" : "#subscription-3"
    ,   "subscriptionFour" : "#subscription-4"
    ,   "subscriptionFive" : "#subscription-5"
    ,   "updatePasswordButton" : ".profile-update-password-form-actions-update"
    ,   "passCurrent" : "#current_password"
    ,   "passNew" : "#password"
    ,   "passRepeat" : "#confirm_password"
    ,   "successSaving" : ".global-views-message-success div"
    ,   "passCurrentP" : "#current_password + p"
    ,   "passNewP" : "#password + p"
    ,   "passConfirmP" : "#confirm_password + p"
    ,   "profileInformationPageLocator" : ".ProfileInformationView"
    ,   "emailPreferencesPageLocator" : ".ProfileEmailPreferencesView"
    ,   "updateYourPasswordPageLocator" : ".ProfileUpdateYourPasswordView"
    }
    ,   "xpaths":
    {       
    }
}
