{
  "id": "ss-bopis-r1.0.0",
  "name": "InStorePickup",
  "dependencies": ["mont-blanc-base"],
  "version": "2.0",
  "buildToolsVersion": "1.1.0",
  "folders": {
    "modules": "Modules",
    "distribution": "bin/LocalDistribution",
    "deploy": "bin/DeployDistribution",
    "release": "bin/ReleaseDistribution"
  },
  "modules": {
    "efficiencies/OrderStatusSummary": "1.0.0",
    "efficiencies/BOPIS": "1.0.0",
    "efficiencies/BOPIS.Checkout": "1.0.0",
    "efficiencies/BOPIS.MyAccount": "1.0.0",
    "efficiencies/Stores": "1.2.0",
    "efficiencies/InventoryDisplay": "2.0.0",
    "efficiencies/StoreLocator": "1.1.0",
    "efficiencies/Profile.MyStore": "1.0.0",
    "efficiencies/EnvironmentFiles": "2.0.0",
    "efficiencies/EFCore": "1.2.0",
    "efficiencies/SSPFiles": "2.0.1",
    "efficiencies/CustomIcons": "1.0.0"
  },
  "tasksConfig": {
     "local": {
            "https": {
                "port": 7778,
                "key": "SupportScripts/local-https/key.pem",
                "cert": "SupportScripts/local-https/cert.pem"
            }
        },
    "javascript": [
      {
        "entryPoint": "SC.Shopping.Starter",
        "dependencies": [
          "InventoryDisplay",
          "StoreLocator",
          "BOPIS",
          "Profile.MyStore"
        ]
      },
      {
        "entryPoint": "SC.MyAccount.Starter",
        "dependencies": [
          "StoreLocator",
          "Profile.MyStore",
          "Profile.MyStore.MyAccount",
          "BOPIS",
          "BOPIS.MyAccount"
        ]
      },
      {
        "entryPoint": "SC.Checkout.Starter",
        "dependencies": [
          {"prepend": "BOPIS.Checkout"},
          "BOPIS",
          "InventoryDisplay",
          "StoreLocator",
          "Profile.MyStore",
          "Profile.MyStore.Checkout",
          {"remove": "Site.Checkout.Configuration"}

        ]
      }
    ],
    "ssp-libraries": {
      "dependencies": [
        "Profile.MyStore.EntryPoint",
        "OrderStatusSummary.Model",
        "StoreLocator.Configuration",
        "InventoryDisplay.EntryPoint",
        "BOPIS.EntryPoint"
      ]
    },
    "sass": {
      "applications": [
        {
          "name": "Shopping",
          "dependencies": [
            "StoreLocator",
            "InventoryDisplay",
            "Profile.MyStore",
            "BOPIS",
            "CustomIcons"
          ]
        },
        {
          "name": "MyAccount",
          "dependencies": [
            "StoreLocator",
            "Profile.MyStore",
            "BOPIS",
            "BOPIS.MyAccount",
            "CustomIcons"
          ]
        },
        {
          "name": "Checkout",
          "dependencies": [
            "StoreLocator",
            "InventoryDisplay",
            "BOPIS",
            "BOPIS.Checkout",
            "Profile.MyStore",
            "CustomIcons"
          ]
        }
      ]
    },
    "deploy": {
      "backup": false
    }
  },
  "backup":false
}
