{
    "gulp": {
        "templates": [
            "Templates/*.tpl"
        ],
        "sass": [
            "Sass/**/*.scss"
        ]
    },
    "suitecommerce/ItemDetails@2.1.0/Templates/item_details.tpl": "Templates/qs_traleika_item_details.tpl"
}