{
	"gulp":{
		"javascript": [
			"JavaScript/**/*.js"
		],
		"ssp-libraries": [
			"SuiteScript/*.js"
		],
		"services": [
			"SuiteScript/*.Service.ss"
		],
		"templates": [
			"Templates/*.tpl"
		],
		"sass": [
		  "Sass/*.scss"
		]
	}
}