{
    "id": "site-qs-premium-muldrow",
    "name": "Site QS Premium - Muldrow Theme",
    "dependencies": ["qs-premium","ss-theme-muldrow"],
    "endpoint": "true",
    "modules": {

    },
    "tasksConfig": {
        "javascript": [
            {
                "entryPoint": "SC.Shopping.Starter",
                "dependencies": [

                ]
            },
            {
                "entryPoint": "SC.MyAccount.Starter",
                "dependencies": [

                ]
            },
            {
                "entryPoint": "SC.Checkout.Starter",
                "dependencies": [

                ]
            }
        ],
        "ssp-libraries": {
            "dependencies": [
            ]
        },
        "sass": {
            "applications": [
                {
                    "name": "Shopping",
                    "dependencies": [
                    ]
                },
                {
                    "name": "MyAccount",
                    "dependencies": [
                    ]
                },
                {
                    "name": "Checkout",
                    "dependencies": [
                    ]
                }
            ]
        }
    }
}
