{
  "id": "ss-storelocator",
  "name": "StoreLocator",
  "dependencies": ["mont-blanc-base", "boilerplate"],
  "version": "2.0",
  "buildToolsVersion": "1.1.0",
  "folders": {
    "modules": "Modules",
    "distribution": "bin/LocalDistribution",
    "deploy": "bin/DeployDistribution"
  },
  "modules": {
    "efficiencies/StoreLocator": "dev",
    "efficiencies/Stores": "dev"
  },
  "tasksConfig": {
    "javascript": [
      {
        "entryPoint": "SC.Shopping.Starter",
        "dependencies": [
          "StoreLocator"
        ]
      },
      {
        "entryPoint": "SC.MyAccount.Starter",
        "dependencies": [
        ]
      },
      {
        "entryPoint": "SC.Checkout.Starter",
        "dependencies": [
        ]
      }
    ],
    "ssp-libraries": {
      "dependencies": [
        "Store.Model",
        "StoreLocator.Configuration"
      ]
    },
    "sass": {
      "applications": [
        {
          "name": "Shopping",
          "dependencies": [
            "StoreLocator"
          ]
        },
        {
          "name": "MyAccount",
          "dependencies": [
          ]
        },
        {
          "name": "Checkout",
          "dependencies": [
          ]
        }
      ]
    }
  }
}
