{
    "gulp": {
        "automation-selectors": [
            "Automation/Data/selectors.json"
        ],
        "automation-helpers": [
            "Automation/Helpers/*.js",
            "Automation/Components/*.js"
        ],
        "automation-jasmine-helpers": [
            "Automation/JasmineHelpers/*.js",
            "Automation/Preconditions/*.js"
        ],
        "automation-tests": [
            "Automation/Tests/*.js"
        ]
    }
}