{
    "gulp": {
        "javascript": [
            "JavaScript/*"
        ],
        "images": [
            "Images/*"
        ],
        "templates": [
            "Templates/*"
        ],
        "sass": [
            "Sass/**/*.scss"
        ]
    },
    "overrides": {
        "suitecommerce/Home@2.0.2/Images/banner-bottom-home-1.jpg": "Images/banner-bottom-home-1.jpg",
        "suitecommerce/Home@2.0.2/Images/banner-bottom-home-2.jpg": "Images/banner-bottom-home-2.jpg",
        "suitecommerce/Home@2.0.2/Images/banner-bottom-home-3.jpg": "Images/banner-bottom-home-3.jpg",
        "suitecommerce/Home@2.0.2/Images/carousel-home-1.jpg": "Images/carousel-home-1.jpg",
        "suitecommerce/Home@2.0.2/Images/carousel-home-2.jpg": "Images/carousel-home-2.jpg",
        "suitecommerce/Home@2.0.2/Images/carousel-home-3.jpg": "Images/carousel-home-3.jpg",

        "suitecommerce/Home@2.0.2/Templates/home.tpl": "Templates/qshome.tpl"
    }
}
