{
    "gulp": {
        "javascript": [
            "JavaScript/*"
        ],
        "templates": [
            "Templates/*"
        ],
        "sass": [
            "Sass/**/*.scss"
        ]
    },
    "overrides": {
        "suitecommerce/ItemDetails@2.2.1/Templates/item_details.tpl": "Templates/qs_item_details.tpl"
    }
}
