{
    "gulp": {
        "templates": [
            "Templates/*"
        ],
        "sass": [
            "Sass/**/*.scss"
        ]
    },
    "overrides": {
        "suitecommerce/SiteSearch@2.1.1/Templates/site_search.tpl": "Templates/qs_site_search.tpl"
    }
}
