{
  "id": "ss-theme-bridge",
  "name": "SuiteSolution Theme Bridge - Vinson",
  "dependencies": ["vinson-base"],
  "modules": {
      "themes/ThemesConfiguration": "1.0.0",
      "themes/bridge/CustomStyles": "1.0.0",
      "themes/bridge/overrides/Theme_BaseSassStyles": "1.0.0",
      "themes/bridge/overrides/Theme_Header": "1.0.0",
      "themes/bridge/overrides/Theme_RequestQuoteAccessPoints": "1.0.0",
      "themes/bridge/overrides/Theme_Home": "1.0.0",
      "themes/bridge/overrides/Theme_Footer": "1.0.0",
      "themes/bridge/overrides/Theme_ItemViews": "1.0.0",
      "themes/bridge/overrides/Theme_ItemDetails": "1.0.1",
      "themes/bridge/overrides/Theme_SiteSearch": "1.0.0",
      "themes/bridge/overrides/Theme_Facets": "1.0.0",
      "themes/bridge/overrides/Theme_Cart": "1.0.0",
      "themes/bridge/overrides/Theme_ProductList": "1.0.0"
  },
  "tasksConfig": {
    "javascript": [
      {
        "entryPoint": "SC.Shopping.Starter",
        "dependencies": [
          "QS.Home.View",
          "QS.Header.View",
          "QS.Footer.View"
        ]
      },
      {
        "entryPoint": "SC.MyAccount.Starter",
        "dependencies": [
          "QS.Home.View",
          "QS.Header.View",
          "QS.Footer.View"
        ]
      },
      {
        "entryPoint": "SC.Checkout.Starter",
        "dependencies": [
          "QS.Home.View",
          "QS.Header.View",
          "QS.Header.Simplified.View",
          "QS.Footer.View"
        ]
      }
    ],
    "sass": {
      "applications": [
        {
          "name": "Shopping",
          "dependencies": [
            "CustomStyles",
            "Theme_BaseSassStyles",
            "Theme_Header",
            "Theme_RequestQuoteAccessPoints",
            "Theme_Home",
            "Theme_Footer",
            "Theme_ItemViews",
            "Theme_SiteSearch",
            "Theme_ItemDetails",
            "Theme_Facets",
            "Theme_Cart",
            "Theme_ProductList"
          ]
        },
        {
          "name": "MyAccount",
          "dependencies": [
            "CustomStyles",
            "Theme_BaseSassStyles",
            "Theme_Header",
            "Theme_RequestQuoteAccessPoints",
            "Theme_Footer",
            "Theme_SiteSearch",
            "Theme_Facets",
            "Theme_ProductList"
          ]
        },
        {
          "name": "Checkout",
          "dependencies": [
            "CustomStyles",
            "Theme_BaseSassStyles",
            "Theme_Header",
            "Theme_RequestQuoteAccessPoints",
            "Theme_Footer",
            "Theme_SiteSearch",
            "Theme_Facets",
            "Theme_ProductList"
          ]
        }
      ]
    },
    "ssp-libraries": {
      "dependencies": []
    }
  }
}




