{
  "gulp":{
    "module_name": "CheckoutFileUpload",

    "javascript": [
      "JavaScript/*.js"
    ],
    "ssp-libraries": [
      "SuiteScript/*.js"
    ],
    "services": [
      "SuiteScript/CheckoutFileUpload.Service.ss"
    ],
    "templates": [
      "Templates/*.tpl"
    ],
    "sass": [
      "Sass/*.scss"
    ],
    "backend-suitescript": [
      "BackendSuiteScript/*.js"
    ]
  }
}