{
	"selectors":
	{
		"enterReturn" 			: "a[data-id='%s']"
	,	"returnTitle" 			: "tr[data-item-id='%s'] .recordviews-title-anchor"
	,	"returnDate" 			: "tr[data-item-id='%s'] .recordviews-date .recordviews-value"
	,	"returnAmount" 			: "tr[data-item-id='%s'] .recordviews-currency .recordviews-value"
	,	"returnItemsQuantity"	: "tr[data-item-id='%s'] .recordviews-items .recordviews-value"
	,	"returnStatus" 			: "tr[data-item-id='%s'] .recordviews-status .recordviews-value"
	,	"returnDetailsHeader"	: ".return-authorization-detail"
	,	"returnComment" 		: ".return-authorization-detail-comments blockquote"
	,	"returnHeaderNumber"	: ".return-authorization-detail-number"
	,	"returnheaderDate"		: ".return-authorization-detail-header-info-return-date-value"
	,	"returnHeaderTotal"		: ".return-authorization-detail-header-total"
	,	"returnHeaderStatus"	: ".return-authorization-detail-header-info-status-value"
	,	"returnHeaderFrom"		: ".return-authorization-detail-header-info-from-label a"
	,	"itemId" 				: "[data-view='Items.Collection'] .item-views-cell-navigable"
	,	"itemName" 				: "[data-id='%s'] .item-views-cell-navigable-product-title-anchor"
	,	"itemSku" 				: "[data-id='%s'] .item-views-cell-navigable-sku-value"
	,	"itemPrice" 			: "[data-id='%s'] .item-views-price-lead"
	,	"itemQuantity" 			: "[data-id='%s'] .item-views-cell-navigable-item-quantity-value"
	,	"itemReason" 			: "[data-id='%s'] .item-views-cell-navigable-item-reason-value"
	,	"itemAmount" 			: "[data-id='%s'] .item-views-cell-navigable-item-amount-value"
	,	"itemOptionLabel" 		: "[data-id='%s'] .item-views-selected-option[name=%d]"
	,	"itemOptionValue" 		: "[data-id='%s'] .item-views-selected-option[name=%d] .item-views-selected-option-value" 
	,	"appliedToTransaction"	: ".return-authorization-detail-creditmemo-accordion-head-toggle"
	,	"noTransactionsApplied"	: ".return-authorization-detail-creditmemo-accordion-body-container-message p"
	,	"transaction"			: "#creditmemo-applied-invoices [data-item-id='%s']"
	,	"transactionName"		: "#creditmemo-applied-invoices [data-item-id='%s'] .recordviews-title-label a"
	,	"transactionDate"		: "#creditmemo-applied-invoices [data-item-id='%s'] .recordviews-date .recordviews-value"
	,	"transactionAmount"		: "#creditmemo-applied-invoices [data-item-id='%s'] .recordviews-currency .recordviews-value"
	,	"transactionsFooter"	: "#creditmemo-applied-invoices tfoot"
	,	"appliedSubtotal"		: ".return-authorization-detail-creditmemo-accordion-body-container-payment-subtotal-value"
	,	"remainingSubtotal"		: ".return-authorization-detail-creditmemo-accordion-body-container-payment-total-value-remaining"
	,	"summaryDiscount"		: ""
	,	"summarySubtotal" 		: ".return-authorization-detail-summary-subtotal"
	,	"summarySubtotalItems"	: ".return-authorization-detail-summary-subtotal-items"
	,	"summaryShipping" 		: ".return-authorization-detail-summary-amount-shipping"
	,	"summaryHandling" 		: ".return-authorization-detail-summary-amount-handling"
	,	"summaryTax" 			: ".return-authorization-detail-summary-amount-tax"
	,	"summaryTotal" 			: ".return-authorization-detail-summary-amount-total"
	,	"buttonDownloadPDF"		: ".return-authorization-detail-summary-pdf-download-button"
	,	"buttonCancelRequest"	: ".return-authorization-detail-summary-cancel-request-button"
	
	,	"selectReturnLineCheck"	: ".item-views-cell-selectable-actionable-navigable-select input[value='%s'][checked]"
	,	"selectReturnLine"		: ".item-views-cell-selectable-actionable-navigable-select input[value='%s']"
	,	"returnAddComment"		: ".return-authorization-form-comment-label"

	,	"confirmationReturnNo"	: ".return-authorization-confirmation-module-body-return-id"
	,	"confirmationThankYou"	: ".return-authorization-confirmation-module-title"
	,	"confirmationText"		: ".return-authorization-confirmation-module-body"
	,	"buttonGoToListRequest"	: ".return-authorization-confirmation-module-continue"	
	,	"confirmationAmount"	: ".return-authorization-confirmation-amount"

	,	"returnAuthorizationPageLocator" : ".ReturnAuthorizationList"

	,	"returnForm" : ".item-views-cell-selectable-actionable-navigable-row"
	,	"returningQuantity" : "input[data-action=quantity]"
	,	"returningReason" : "select[data-action=reasons]"
	,	"returningComments" : "textarea[data-action=comments]"
	,	"returnSubmit" : ".return-authorization-form-submit-button"
	,	"returnList" : ".return-authorization-list-container"
	,	"returnNumber" : ".return-number"
	,	"returnFrom" : ".return-authorization-detail-header-info-from"
	,	"returnDate2" : ".return-authorization-detail-header-info-return-date-value"
	,	"returnProduct" : ".item-views-cell-navigable-product-title-anchor"
	,	"returnSku" : ".item-views-cell-navigable-sku-value"
	,	"returnQuantity" : ".item-views-cell-navigable-item-quantity-value"
	,	"returnReason" : ".item-views-cell-navigable-item-reason-value"
	,	"returnUpperTotal" : ".return-authorization-detail-header-total"
	,	"returnTotal" : ".return-authorization-detail-summary-amount-total"
	,	"returnState" : ".return-authorization-detail-header-info-status-value"
	}		
,	"xpaths":
	{
		"returnItemQuantityBySku"	: "//*[@class='item-views-cell-selectable-actionable-navigable-sku-value' and contains(text(),'%s')]/../../..//*[@class='return-authorization-form-item-summary-quantity-field']"
	,	"returnItemReasonBySku"		: "//*[@class='item-views-cell-selectable-actionable-navigable-sku-value' and contains(text(),'%s')]/../../..//*[@class='return-authorization-form-item-actions-options']"
	,	"returnItemBySku"			: "//*[@class='item-views-cell-selectable-actionable-navigable-sku-value' and contains(text(),'%s')]"
	}	
}